Starting Test for 
Transistor testing lab
16:21:20 Oct  1 2017


Please wait for device to measure data untill it stop printing *
PWM Init 

* * * * * * * * * * * * * * * * Reading complete, hit anykey to continue print 

Print Column in the following order: 

Duty, PD0, PE1, PD2, PD3 

refV = 3925
0,  5.75,  5.69,  3736.12,  3372.12 
1,  42.50,  44.00,  3736.62,  3372.12 
2,  80.69,  83.25,  3736.44,  3371.19 
3,  119.75,  119.69,  3737.75,  3371.81 
4,  157.06,  160.31,  3737.44,  3371.19 
5,  197.12,  199.00,  3738.00,  3371.69 
6,  236.12,  238.44,  3737.38,  3370.19 
7,  276.38,  278.50,  3737.75,  3370.69 
8,  316.31,  315.12,  3737.75,  3370.44 
9,  356.19,  356.44,  3739.50,  3369.06 
10,  396.12,  395.62,  3739.31,  3369.31 
11,  433.94,  438.50,  3739.19,  3367.38 
12,  474.06,  477.31,  3739.31,  3367.19 
13,  512.69,  515.75,  3739.38,  3365.19 
14,  550.56,  554.00,  3739.44,  3363.81 
15,  590.38,  592.88,  3742.06,  3362.38 
16,  628.81,  632.50,  3740.12,  3356.38 
17,  668.94,  671.12,  3739.94,  3351.25 
18,  707.25,  711.12,  3740.19,  3341.12 
19,  749.06,  748.62,  3741.19,  3317.69 
20,  789.31,  788.62,  3748.94,  3185.75 
21,  827.06,  827.06,  3768.88,  2775.50 
22,  866.38,  865.69,  3790.69,  2353.81 
23,  903.50,  905.81,  3812.69,  1959.12 
24,  940.62,  944.19,  3832.50,  1594.00 
25,  977.44,  983.69,  3848.88,  1271.06 
26,  1018.12,  1024.06,  3863.94,  974.88 
27,  1061.81,  1063.56,  3873.19,  726.19 
28,  1101.56,  1101.38,  3879.94,  522.69 
29,  1142.62,  1141.19,  3892.94,  362.50 
30,  1182.75,  1180.00,  3900.06,  242.50 
31,  1223.62,  1219.12,  3899.88,  155.00 
32,  1260.50,  1258.56,  3901.06,  94.50 
33,  1296.81,  1296.62,  3900.50,  56.12 
34,  1334.75,  1336.31,  3900.75,  30.81 
35,  1372.31,  1375.69,  3900.94,  13.88 
36,  1416.38,  1414.31,  3899.19,  5.00 
37,  1457.00,  1454.81,  3900.50,  4.75 
38,  1495.31,  1492.62,  3898.06,  3.25 
39,  1535.50,  1532.88,  3898.50,  3.38 
40,  1576.94,  1571.50,  3901.44,  3.81 
41,  1615.50,  1609.44,  3900.56,  4.81 
42,  1654.56,  1648.31,  3901.75,  3.94 
43,  1689.88,  1686.25,  3901.31,  3.19 
44,  1727.31,  1729.50,  3901.56,  4.88 
45,  1766.31,  1767.50,  3901.56,  3.75 
46,  1804.06,  1804.94,  3903.06,  3.06 
47,  1844.81,  1847.69,  3901.31,  3.69 
48,  1887.25,  1886.44,  3902.19,  3.94 
49,  1929.06,  1925.44,  3901.94,  2.56 
50,  1969.88,  1963.19,  3901.25,  3.31 
51,  2008.69,  2002.31,  3903.12,  3.69 
52,  2049.00,  2041.50,  3901.44,  4.31 
53,  2085.06,  2079.31,  3903.19,  3.88 
54,  2121.50,  2125.62,  3903.00,  4.12 
55,  2159.88,  2163.88,  3903.94,  4.25 
56,  2199.06,  2201.38,  3903.31,  4.81 
57,  2239.38,  2240.56,  3903.62,  3.88 
58,  2280.50,  2278.69,  3902.38,  3.06 
59,  2323.44,  2317.69,  3903.12,  4.69 
60,  2361.94,  2356.19,  3903.25,  2.69 
61,  2399.75,  2394.94,  3904.50,  4.25 
62,  2438.38,  2433.88,  3906.19,  4.38 
63,  2473.38,  2472.00,  3905.00,  3.44 
64,  2513.44,  2510.56,  3906.00,  3.06 
65,  2553.00,  2551.12,  3905.94,  3.50 
66,  2591.62,  2590.44,  3905.56,  3.69 
67,  2631.56,  2629.56,  3903.81,  3.19 
68,  2675.00,  2669.31,  3903.56,  3.50 
69,  2714.75,  2707.56,  3902.19,  4.25 
70,  2754.50,  2747.94,  3901.62,  3.50 
71,  2793.38,  2785.88,  3904.56,  3.88 
72,  2830.44,  2824.25,  3909.44,  2.81 
73,  2867.12,  2863.81,  3910.50,  4.25 
74,  2907.75,  2902.69,  3909.38,  3.75 
75,  2945.88,  2941.88,  3906.69,  3.81 
76,  2985.69,  2981.56,  3908.44,  3.88 
77,  3025.12,  3020.75,  3905.94,  3.69 
78,  3065.81,  3059.62,  3906.12,  4.31 
79,  3105.94,  3099.88,  3906.25,  3.75 
80,  3145.69,  3139.06,  3905.94,  4.44 
81,  3185.69,  3178.56,  3907.44,  3.75 
82,  3223.94,  3216.38,  3905.81,  3.38 
83,  3261.81,  3255.19,  3907.31,  3.69 
84,  3300.06,  3294.75,  3907.06,  5.12 
85,  3338.44,  3332.81,  3906.44,  3.62 
86,  3376.69,  3371.12,  3907.19,  3.19 
87,  3417.69,  3410.44,  3906.50,  3.69 
88,  3458.75,  3449.12,  3905.94,  3.50 
89,  3498.38,  3489.81,  3905.94,  4.19 
90,  3537.62,  3530.81,  3905.25,  3.88 
91,  3574.62,  3572.06,  3903.50,  2.56 
92,  3615.38,  3610.38,  3907.62,  3.25 
93,  3654.19,  3649.38,  3908.31,  3.56 
94,  3695.19,  3688.75,  3908.88,  3.19 
95,  3735.25,  3727.94,  3909.88,  5.19 
96,  3772.31,  3766.94,  3909.75,  3.94 
97,  3813.00,  3805.56,  3909.56,  4.62 
98,  3851.00,  3844.12,  3909.06,  3.88 
99,  3890.81,  3883.75,  3909.62,  3.44 
100,  3908.75,  3896.94,  3910.56,  2.81 
