Starting Test for ,,,,,,,,,,,,,,,,,,,,,,
Transistor testing lab,,,,,,,,,,,,,,,,,,,,,,
16:21:20 Oct  1 2017,,,,,,,,,,,,,,,,,,,,,,
,,,,,,,,,,refV Scale Factor =,,1.044110148,,,,,,,,,,
,,,,,,,,,,PD0 = Excite,,,,,,,,,,,,
Please wait for device to measure data untill it stop printing *,,,,,,,,,,PE1 = Drive (Drv),,,,,,,,,,,,
PWM Init ,,,,,,,,,,PD2 = Sense (Sns),,,,,,,,,,,,
,,,,,,,,,,PD3 = SinkSense (Snk),,,,,,,,,,,,
* * * * * * * * * * * * * * * * Reading complete, hit anykey to continue print ,,,,,,,,,,convert to voltage,,0.001221001,,,,,,,,,
,,,,,,,,,,,convert to voltage for PD3,,1.43907E-05,,,,,,,,,
Print Column in the following order: ,,,,,,,,,,,,,,,,,,,,,,
,,,,,,,,,,Scaled to 5V,,,,,,,,,,,,
Duty, PD0,Excite(V), PE1,Drv (V), PD2,Sns (V), PD3 ,Snk (V),,Excite (V),Drv (V),Sns (V),Snk (V),,Drv (V) w/offset,Sns (V) w/offset,,Vce (V),Ib (A),Ic (A),PQ (W),Ic:Ib
,,,,,,,,,,,,,,,,,,,,,,
refV = 3922,refV (V)=,4.788766789,,,,,,,,,,,,,,,,,,,,
0,4.56,0.005567766,3.62,0.004420024,3892.38,4.752600733,2.56,3.68402E-05,,0.005813361,0.004614992,4.962238654,3.84653E-05,,0.000550262,4.961843749,,4.961805284,2.39232E-06,2.23879E-05,0.000111086,9.358242971
1,41.06,0.05013431,41.31,0.05043956,3891.88,4.751990232,2.88,4.14453E-05,,0.052345742,0.052664457,4.961601224,4.32734E-05,,0.051708799,4.961448358,,4.961405084,2.89519E-07,2.70821E-05,0.00013438,93.54175229
2,77.94,0.095164835,80.06,0.097753358,3894.06,4.754652015,2.19,3.15157E-05,,0.09936257,0.102065273,4.964380418,3.29058E-05,,0.099121848,4.964380418,,4.964347512,1.09419E-07,1.84489E-05,9.15975E-05,168.607324
3,116.69,0.142478632,118.19,0.144310134,3894.31,4.754957265,1.31,1.88518E-05,,0.148763386,0.150675676,4.964699133,1.96834E-05,,0.149554371,4.964380662,,4.964360978,-3.59539E-07,1.37543E-05,6.82273E-05,-38.25530935
4,155.38,0.18971917,157.56,0.192380952,3894.69,4.755421245,2.38,3.42499E-05,,0.19808771,0.200866905,4.96518358,3.57607E-05,,0.19919769,4.964865108,,4.964829348,-5.04536E-07,1.30013E-05,6.44487E-05,-25.76883017
5,193.38,0.236117216,195.62,0.238852259,3896,4.757020757,1.75,2.51838E-05,,0.246532381,0.249388067,4.966853646,2.62946E-05,,0.247718852,4.966458742,,4.966432447,-5.39305E-07,1.19019E-05,5.89766E-05,-22.06904189
6,233.56,0.285177045,234.44,0.286251526,3894.88,4.755653236,1.38,1.98592E-05,,0.297756247,0.298878123,4.965425803,2.07352E-05,,0.297680366,4.965030899,,4.965010164,3.44913E-08,1.25958E-05,6.25488E-05,365.189284
7,275.44,0.336312576,274.25,0.334859585,3894.69,4.755421245,2.81,4.04379E-05,,0.351147374,0.349630291,4.96518358,4.22216E-05,,0.347158323,4.964699503,,4.964657282,1.8132E-06,1.62472E-05,8.12914E-05,8.960503504
8,314.75,0.384310134,312.5,0.381562882,3895.06,4.755873016,1.25,1.79884E-05,,0.401262111,0.398393677,4.965655278,1.87819E-05,,0.396329457,4.96374445,,4.963725668,2.24212E-06,1.59E-05,7.98118E-05,7.091514712
9,355.31,0.433833944,355.44,0.433992674,3895.06,4.755873016,2.12,3.05083E-05,,0.452970423,0.453136155,4.965655278,3.18541E-05,,0.450664188,4.962865469,,4.962833615,1.04829E-06,1.70013E-05,8.4847E-05,16.21813669
10,396,0.483516484,394.12,0.481221001,3896.62,4.757777778,2.81,4.04379E-05,,0.504844467,0.502447731,4.967644059,4.22216E-05,,0.500689321,4.966217308,,4.966175086,1.8887E-06,1.52067E-05,7.6465E-05,8.051423978
11,432.12,0.527619048,432.44,0.528009768,3895.75,4.756715507,1.19,1.7125E-05,,0.550892402,0.551300357,4.966534931,1.78803E-05,,0.544139297,4.963910727,,4.963892847,3.06959E-06,3.0044E-05,0.000150805,9.787608504
12,472.19,0.576544567,474.56,0.579438339,3847.06,4.697264957,42.12,0.000606137,,0.601976033,0.60499745,4.904462009,0.000632874,,0.597670743,4.902309143,,4.901676269,1.95695E-06,0.000305644,0.001499337,156.183767
13,511.06,0.624004884,506.69,0.618669109,3633.38,4.436361416,225.44,0.003244244,,0.651529832,0.645958695,4.632049975,0.003387348,,0.639906197,4.630381185,,4.626993837,5.28347E-06,0.001541736,0.007136983,291.8036096
14,548.5,0.66971917,530.19,0.647362637,3170.12,3.870720391,640.25,0.009213659,,0.699260581,0.675917899,4.04145844,0.009620075,,0.671381711,4.040108121,,4.030488047,1.26722E-05,0.004125155,0.016634897,325.5276016
15,588.44,0.718485958,550.69,0.672393162,2530.75,3.09004884,1212.44,0.017447885,,0.75017848,0.702052524,3.226351351,0.018217514,,0.697274237,3.2249246,,3.206707086,2.40474E-05,0.007659892,0.024579799,318.5332981
16,626.12,0.764493284,567.62,0.693064713,1801.25,2.199328449,1846.69,0.026575199,,0.798215196,0.7236359,2.296341152,0.027747435,,0.71878116,2.295220133,,2.267472698,3.61064E-05,0.011707526,0.026572449,324.2509012
17,666.81,0.814175824,583.38,0.712307692,1052.69,1.285335775,2479.62,0.035683518,,0.85008924,0.74372769,1.342032126,0.037257523,,0.741574275,1.34043977,,1.303182246,4.9325E-05,0.015842077,0.020681691,321.1775285
18,707.19,0.863479853,597,0.728937729,559.88,0.683614164,2919.12,0.04200824,,0.901568078,0.76109128,0.713768485,0.043861229,,0.757663655,0.712099696,,0.668238466,6.54111E-05,0.018564506,0.012455076,283.8127661
19,747.06,0.912161172,603.12,0.736410256,367,0.448107448,3092,0.044496107,,0.952396736,0.768893422,0.467873534,0.046458837,,0.765554992,0.466446782,,0.419987945,8.49281E-05,0.019632941,0.008310616,231.1714174
20,787.31,0.961306471,609.88,0.744664225,241.62,0.295018315,3206.12,0.046138376,,1.003709842,0.777511474,0.308031617,0.048173547,,0.773535939,0.306757731,,0.258584184,0.000104625,0.020321124,0.005335652,194.2291123
21,825.25,1.007631258,612.94,0.748400488,193,0.235653236,3254.62,0.046836326,,1.052078021,0.781412545,0.246047935,0.048902284,,0.77774282,0.244774049,,0.195871766,0.000124698,0.02059342,0.004130652,165.1465943
22,863.94,1.054871795,614,0.74969475,170.88,0.208644689,3277.06,0.047159254,,1.101402346,0.782763896,0.217848037,0.049239456,,0.778546261,0.21681619,,0.167576734,0.000146753,0.020715457,0.003585683,141.158889
23,901.38,1.100586081,615.69,0.751758242,159.38,0.194603175,3289.5,0.047338275,,1.149133095,0.784918409,0.203187149,0.049426373,,0.781248684,0.201429188,,0.152002815,0.00016722,0.020781344,0.003289463,124.2753321
24,938.19,1.145531136,616.38,0.752600733,152.31,0.185970696,3302.44,0.047524491,,1.196060683,0.785798062,0.194173891,0.049620803,,0.782128337,0.192415929,,0.142795126,0.000188151,0.020828516,0.003121369,110.7010237
25,975.31,1.190854701,617.25,0.753663004,145.12,0.177191697,3311.31,0.047652136,,1.243383478,0.78690719,0.185007649,0.049754079,,0.783963765,0.181580898,,0.131826818,0.000208827,0.020856385,0.002913144,99.87391962
26,1014.38,1.238559219,617.31,0.753736264,139.06,0.16979243,3318.75,0.047759203,,1.293192249,0.786983682,0.177281999,0.049865869,,0.782039747,0.173944419,,0.124078551,0.000232342,0.020895501,0.002774384,89.93422231
27,1060.62,1.295018315,618.31,0.754957265,130.75,0.15964591,3327.12,0.047879654,,1.352141764,0.788258542,0.166687914,0.049991632,,0.784435912,0.163745239,,0.113753607,0.000258048,0.02093786,0.002584179,81.13936382
28,1100.56,1.343785104,618.88,0.755653236,123.94,0.151330891,3332.81,0.047961537,,1.403059663,0.788985212,0.158006119,0.050077127,,0.785315487,0.151955164,,0.101878037,0.000280793,0.020950544,0.002354911,74.61210949
29,1141.12,1.393308913,619.69,0.756642247,129.12,0.157655678,3338.69,0.048046154,,1.454767976,0.790017848,0.164609893,0.050165477,,0.785558113,0.158953842,,0.108788365,0.000304186,0.020911079,0.002513838,68.74431396
30,1180.06,1.440854701,619.38,0.756263736,128.88,0.157362637,3345.75,0.048147753,,1.504411015,0.789622642,0.164303927,0.050271557,,0.784372896,0.158495009,,0.108223452,0.00032729,0.020924062,0.002521192,63.93124902
31,1219.25,1.488705739,620.94,0.758168498,125.88,0.153699634,3349.25,0.04819812,,1.554372769,0.791611423,0.160479347,0.050324146,,0.788425898,0.15633922,,0.106015073,0.000348158,0.020976978,0.002498372,60.25137332
32,1258.5,1.536630037,622.38,0.75992674,121.94,0.148888889,3355.62,0.048289789,,1.604411015,0.793447221,0.1554564,0.050419859,,0.789140391,0.151150667,,0.100730808,0.000370578,0.020996158,0.002407398,56.65793093
33,1294,1.57997558,621.75,0.759157509,119.19,0.145531136,3361.06,0.048368075,,1.649668536,0.792644059,0.151950535,0.050501598,,0.786757209,0.145020599,,0.094519002,0.000392232,0.021014238,0.002294836,53.57598405
34,1330.56,1.624615385,622.06,0.75953602,117.81,0.143846154,3366.19,0.048441899,,1.696277409,0.793039266,0.150191229,0.050578678,,0.788426626,0.144777216,,0.094198538,0.000412659,0.021015743,0.002305004,50.92757018
35,1369.44,1.672087912,623.62,0.761440781,116.38,0.142100122,3372.06,0.048526373,,1.745843957,0.795028047,0.14836818,0.050666878,,0.790173307,0.142954167,,0.092287289,0.000434396,0.021030521,0.002284098,48.41327612
36,1408,1.719169719,623.88,0.761758242,113,0.137973138,3376.69,0.048593002,,1.79500255,0.79535951,0.144059153,0.050736446,,0.789625565,0.138479536,,0.08774309,0.00045699,0.021037124,0.002206713,46.0341483
37,1454.5,1.775946276,623.75,0.761599512,110.31,0.134688645,3381.81,0.048666682,,1.854283529,0.795193779,0.140629781,0.050813377,,0.791294696,0.134260354,,0.083446977,0.000483177,0.021053756,0.002139207,43.57361134
38,1494.12,1.824322344,623.69,0.761526252,108.81,0.132857143,3386.31,0.04873144,,1.904793473,0.795117287,0.138717491,0.050880991,,0.789701895,0.13139265,,0.080511659,0.00050686,0.021062448,0.002096041,41.55477995
39,1534.25,1.873321123,624.44,0.762442002,108.44,0.132405372,3391.38,0.048804401,,1.955953595,0.796073432,0.138245793,0.050957171,,0.791295144,0.132513309,,0.081556138,0.00052939,0.021045754,0.002135314,39.75470971
40,1574.5,1.922466422,624.62,0.762661783,108.19,0.132100122,3394.94,0.048855632,,2.007266701,0.796302907,0.137927078,0.051010661,,0.791282519,0.130844275,,0.079833614,0.00055272,0.021044304,0.002117401,38.07407247
41,1612.38,1.968717949,624,0.761904762,107.19,0.130879121,3400,0.048928449,,2.055558389,0.795512494,0.136652218,0.05108669,,0.790173554,0.129327377,,0.078240687,0.000575175,0.021080182,0.002103816,36.65003663
42,1651.75,2.016788767,624.81,0.762893773,106,0.129426129,3405.62,0.049009325,,2.105749618,0.79654513,0.135135135,0.051171134,,0.791766843,0.127249785,,0.076078651,0.000597265,0.021080934,0.002076704,35.29578568
43,1687.56,2.060512821,624.94,0.763052503,106.06,0.129499389,3408.25,0.049047173,,2.151402346,0.796710862,0.135211627,0.051210651,,0.791129822,0.126689334,,0.075478683,0.000618306,0.021083832,0.00208054,34.09936592
44,1724.56,2.105689866,628.31,0.767167277,104.31,0.127362637,3414.69,0.049139849,,2.198572157,0.801007139,0.132980622,0.051307415,,0.789386344,0.124216291,,0.072908876,0.000640539,0.02109832,0.002043888,32.93838473
45,1763,2.152625153,628.5,0.767399267,104.25,0.127289377,3418.69,0.049197412,,2.247577766,0.801249363,0.132904131,0.051367517,,0.790902777,0.123197124,,0.071829607,0.000662125,0.021099016,0.002039211,31.86560821
46,1800.81,2.198791209,628.69,0.767631258,103.38,0.126227106,3421.19,0.049233389,,2.295780214,0.801491586,0.131795003,0.051405081,,0.792177111,0.121998824,,0.070593743,0.000683456,0.021101913,0.002031081,30.87530711
47,1842.94,2.25023199,631,0.77045177,102.19,0.124774115,3427,0.049316999,,2.349490056,0.804436512,0.130277919,0.051492379,,0.795759142,0.119054989,,0.067562611,0.000706241,0.021107359,0.001988066,29.88689356
48,1883.31,2.29952381,629.88,0.769084249,100.62,0.122857143,3430.06,0.049361034,,2.400956145,0.803008669,0.12827639,0.051538357,,0.794802757,0.116964288,,0.065425931,0.00073007,0.021111762,0.001961518,28.91746025
49,1926.75,2.352564103,630.94,0.77037851,100.88,0.123174603,3434.56,0.049425793,,2.456336053,0.80436002,0.128607853,0.051605972,,0.79592475,0.117703395,,0.066097423,0.000754732,0.021111299,0.001996113,27.97189912
50,1966.25,2.400793651,630.06,0.769304029,100.88,0.123174603,3439.69,0.049499617,,2.506693014,0.803238144,0.128607853,0.051683052,,0.797899204,0.115550528,,0.063867476,0.000776724,0.021113849,0.001968236,27.18319086
51,2004.88,2.447960928,630.31,0.76960928,98.62,0.12041514,3442.44,0.049539192,,2.555940847,0.803556859,0.12572667,0.051724373,,0.797746461,0.112032403,,0.06030803,0.000799179,0.021123352,0.00191145,26.43130608
52,2044.06,2.495799756,630.44,0.76976801,98.94,0.120805861,3447.31,0.049609274,,2.605889852,0.803722591,0.126134625,0.051797547,,0.797504446,0.112758829,,0.060961282,0.000821993,0.021129786,0.001943642,25.7055434
53,2081.19,2.541135531,629.69,0.768852259,98.69,0.120500611,3450.56,0.049656044,,2.653225395,0.802766446,0.12581591,0.05184638,,0.796318943,0.111013362,,0.059166983,0.000844048,0.02112254,0.001921889,25.02527194
54,2117.75,2.585775336,635.75,0.776251526,98,0.11965812,3455,0.049719939,,2.699834268,0.810492096,0.124936257,0.051913093,,0.793443166,0.109802499,,0.057889406,0.000866541,0.021131234,0.001910826,24.38571729
55,2156.25,2.632783883,637.56,0.778461538,97.19,0.118669109,3458.81,0.049774768,,2.748916369,0.812799592,0.123903621,0.05197034,,0.798299082,0.107343111,,0.055372771,0.000886644,0.021139927,0.001878384,23.84262659
56,2194.31,2.679255189,635.94,0.776483516,97.12,0.118583639,3464.81,0.049861112,,2.797437532,0.810734319,0.12381438,0.052060493,,0.796870915,0.105903552,,0.053843059,0.000909348,0.021137087,0.001862719,23.24421019
57,2236.12,2.73030525,637.44,0.778315018,96.94,0.118363858,3467.12,0.049894354,,2.850739419,0.812646609,0.123584906,0.052095202,,0.801178719,0.106463887,,0.054368685,0.000931618,0.021135579,0.001895507,22.68694696
58,2278.19,2.781672772,635.56,0.776019536,96.25,0.117521368,3470.75,0.049946593,,2.904372769,0.810249873,0.122705252,0.052149744,,0.79949554,0.103915444,,0.051765699,0.000956762,0.021137781,0.001859139,22.09303123
59,2318.75,2.831196581,634,0.774114774,94.5,0.115384615,3475.31,0.050012214,,2.956081081,0.808261091,0.120474248,0.052218261,,0.797430306,0.101365968,,0.049147707,0.000981205,0.021153023,0.001822065,21.55821153
60,2357.62,2.878656899,635.19,0.775567766,95.06,0.116068376,3479.12,0.050067043,,3.00563488,0.809778174,0.121188169,0.052275508,,0.800858704,0.102232755,,0.049957247,0.001002171,0.021167514,0.001860068,21.12165941
61,2395.5,2.924908425,634.88,0.775189255,94.19,0.115006105,3482.94,0.050122016,,3.053926568,0.809382968,0.120079041,0.052332905,,0.79974994,0.098180952,,0.045848047,0.001024626,0.021161311,0.001789649,20.65272241
62,2432,2.969474969,634.88,0.775189255,96,0.117216117,3486.31,0.050170512,,3.10045895,0.809382968,0.122386537,0.052383541,,0.800387045,0.098743225,,0.046359684,0.001045487,0.021153373,0.001817458,20.23302834
63,2468.31,3.013809524,635.19,0.775567766,95.5,0.116605617,3490.81,0.050235271,,3.146749108,0.809778174,0.121749108,0.052451156,,0.7997374,0.098666305,,0.046215149,0.001066824,0.021153372,0.001830785,19.82837079
64,2511.62,3.066691087,636.19,0.776788767,96.81,0.118205128,3496.06,0.050310822,,3.201963284,0.811053034,0.123419174,0.05253004,,0.801572912,0.098501976,,0.045971937,0.001091087,0.021149374,0.001846863,19.38377374
65,2548.19,3.111343101,636.19,0.776788767,95.31,0.116373626,3498.12,0.050340467,,3.248584906,0.811053034,0.121506884,0.052560992,,0.801101454,0.096818986,,0.044257994,0.001112492,0.021145779,0.001827089,19.00756993
66,2586.5,3.158119658,636,0.776556777,94.12,0.114920635,3503.44,0.050417025,,3.297424783,0.810810811,0.119989801,0.052640928,,0.800770036,0.094906999,,0.042266071,0.001134843,0.021166412,0.001803369,18.65139968
67,2629.25,3.21031746,636.81,0.777545788,93.06,0.113626374,3506.81,0.050465522,,3.351925038,0.811843447,0.11863845,0.052691564,,0.802605425,0.093950552,,0.041258988,0.001158782,0.021156962,0.001802959,18.25793688
68,2669.56,3.25953602,637,0.777777778,91.31,0.111489621,3510.31,0.05051589,,3.403314635,0.812085671,0.116407445,0.052744153,,0.802210543,0.09124821,,0.038504056,0.00118232,0.02116206,0.001763295,17.89875794
69,2711.12,3.31028083,637.25,0.778083028,89.31,0.109047619,3515.56,0.050591441,,3.456297807,0.812404386,0.113857726,0.052823037,,0.802771358,0.088622057,,0.03579902,0.001206148,0.021171505,0.001726181,17.5529856
70,2749,3.356532357,637.31,0.778156288,88.06,0.107521368,3518.38,0.050632023,,3.504589495,0.812480877,0.112264151,0.052865409,,0.802440102,0.087665425,,0.034800016,0.00122825,0.021187791,0.001722932,17.25039345
71,2787.81,3.403919414,638.38,0.779462759,90.69,0.110732601,3521.81,0.050681383,,3.554066803,0.813844977,0.115617032,0.052916946,,0.804364855,0.084648879,,0.031731933,0.001249865,0.02119788,0.001677997,16.96014253
72,2826.31,3.450927961,638.5,0.77960928,96.62,0.117973138,3526.44,0.050748012,,3.603148904,0.81399796,0.123176951,0.052986514,,0.804364933,0.090132365,,0.03714585,0.001272175,0.021163923,0.001809444,16.63602153
73,2861.62,3.494041514,638.75,0.77991453,96.94,0.118363858,3528.62,0.050779384,,3.648164202,0.814316675,0.123584906,0.05301927,,0.804365095,0.087839683,,0.034820413,0.001292636,0.021160214,0.001776559,16.36981675
74,2903.81,3.545555556,639.69,0.781062271,94.62,0.115531136,3534.75,0.050867599,,3.701950535,0.815515043,0.120627231,0.053111376,,0.804607806,0.085837422,,0.032726046,0.001316974,0.021171861,0.001752519,16.07614227
75,2942.94,3.593333333,639.56,0.780903541,93.81,0.114542125,3538.56,0.050922428,,3.751835798,0.815349312,0.119594595,0.053168623,,0.804837079,0.085594595,,0.032425971,0.001339545,0.021168208,0.001764515,15.80253745
76,2980,3.638583639,639.56,0.780903541,92.25,0.112637363,3541.25,0.050961139,,3.799082101,0.815349312,0.117605813,0.053209042,,0.805397732,0.083210909,,0.030001867,0.001360766,0.021181247,0.001731435,15.56568377
77,3021.31,3.689023199,640.19,0.781672772,91.75,0.112026862,3544.62,0.051009635,,3.851746558,0.816152473,0.116968383,0.053259678,,0.806035246,0.082968383,,0.029708706,0.001384414,0.021178348,0.001745068,15.2976963
78,3062.94,3.73985348,640.69,0.782283272,89.69,0.1095116,3548.5,0.051065471,,3.90481897,0.816789903,0.114342172,0.053317977,,0.806519771,0.079628797,,0.02631082,0.001408318,0.021187735,0.001693303,15.04471162
79,3101.69,3.787167277,640.62,0.782197802,90.25,0.11019536,3551.56,0.051109507,,3.954219786,0.816700663,0.115056094,0.053363955,,0.807462641,0.080584756,,0.027220801,0.001430344,0.021179042,0.00173146,14.80695518
80,3141.5,3.835775336,640.5,0.782051282,88.62,0.108205128,3556.25,0.051176999,,4.004971953,0.81654768,0.112978072,0.053434424,,0.80556399,0.078264697,,0.024830272,0.001454276,0.021195037,0.001697791,14.57428448
81,3180.19,3.883015873,640.94,0.782588523,88.94,0.108595849,3560.25,0.051234562,,4.054296277,0.817108618,0.113386028,0.053494526,,0.806124928,0.077793671,,0.024299144,0.001476442,0.021195327,0.001705225,14.35568368
82,3219.44,3.930940171,641.38,0.783125763,88.75,0.108363858,3563.5,0.051281332,,4.104334523,0.817669556,0.113143804,0.053543359,,0.806838771,0.076124696,,0.022581337,0.001498862,0.021193183,0.00168791,14.13951834
83,3257.5,3.977411477,641.88,0.783736264,89.5,0.109279609,3567.25,0.051335297,,4.152855686,0.818306986,0.114099949,0.053599705,,0.808036854,0.077233707,,0.023634002,0.001520372,0.021193589,0.001729406,13.93973756
84,3294.69,4.022820513,641.81,0.783650794,88.62,0.108205128,3573.19,0.051420778,,4.200267721,0.818217746,0.112978072,0.053688956,,0.808100519,0.074608646,,0.020919689,0.001541894,0.02120008,0.001689505,13.74937412
85,3332.94,4.06952381,640.31,0.781819292,88.62,0.108205128,3574.88,0.051445099,,4.249031107,0.816305456,0.112978072,0.053714349,,0.807309534,0.073245588,,0.019531239,0.001564419,0.021199037,0.001677014,13.55074186
86,3372.25,4.117521368,640.94,0.782588523,88.06,0.107521368,3578.25,0.051493595,,4.299145844,0.817108618,0.112264151,0.053764985,,0.807552043,0.072773705,,0.01900872,0.001587088,0.021196833,0.001684581,13.35580131
87,3412.94,4.167203907,639.38,0.780683761,86.62,0.105763126,3582.75,0.051558353,,4.351019888,0.815119837,0.110428353,0.0538326,,0.805486809,0.070695869,,0.016863269,0.001611606,0.021199381,0.001655618,13.15419661
88,3453.19,4.216349206,639.12,0.7803663,86.06,0.105079365,3586.06,0.051605987,,4.402332993,0.814788373,0.109714431,0.053882334,,0.804747599,0.070071119,,0.016188785,0.001635266,0.021202974,0.001659227,12.96606985
89,3492.88,4.264810745,644.06,0.786398046,85.94,0.104932845,3590.12,0.051664413,,4.452932177,0.821086181,0.109561448,0.053943338,,0.811529606,0.070389474,,0.016446136,0.001655183,0.021200076,0.001691889,12.80829743
90,3532.75,4.313492063,644.19,0.786556777,83.62,0.102100122,3594.06,0.051721113,,4.503760836,0.821251912,0.106603774,0.054002538,,0.809784022,0.066081481,,0.012078942,0.00167908,0.021202623,0.001615798,12.62752119
91,3570.31,4.359352869,644.75,0.787240537,85.5,0.104395604,3596.31,0.051753492,,4.551644569,0.821965834,0.10900051,0.054036346,,0.806280309,0.070070574,,0.016034228,0.001702438,0.021221058,0.001712906,12.46509664
92,3610.56,4.408498168,646.62,0.78952381,86.81,0.105995116,3602.06,0.051836238,,4.602957675,0.824349822,0.110670576,0.054122742,,0.809938507,0.068313888,,0.014191146,0.0017241,0.021209873,0.001697407,12.3019997
93,3648.75,4.455128205,647.25,0.79029304,88.19,0.107680098,3605,0.051878547,,4.651644569,0.825152983,0.112429883,0.054166917,,0.813047988,0.067525424,,0.013358507,0.001744817,0.02121202,0.001701981,12.15716274
94,3688.5,4.503663004,646.25,0.789072039,87.75,0.107142857,3608.12,0.051923446,,4.702320245,0.823878123,0.111868944,0.054213797,,0.811454576,0.065614167,,0.01140037,0.001768575,0.02120802,0.001676898,11.99158416
95,3729.31,4.553492063,645.69,0.788388278,87.69,0.107069597,3613.12,0.0519954,,4.754347272,0.823164202,0.111792453,0.054288924,,0.811543407,0.063461243,,0.009172318,0.001792184,0.021212367,0.001649001,11.83604572
96,3765.56,4.597753358,646.62,0.78952381,87.06,0.106300366,3615.38,0.052027923,,4.800560938,0.824349822,0.110989291,0.054322882,,0.811849822,0.062263177,,0.007940294,0.001813051,0.021212772,0.00164036,11.70004446
97,3808.25,4.6498779,646.88,0.78984127,87.25,0.106532357,3620.56,0.052102467,,4.854984702,0.824681285,0.111231515,0.054400714,,0.81281839,0.0625054,,0.008104686,0.001837348,0.02120912,0.001665324,11.54333116
98,3844.44,4.694065934,646.19,0.788998779,86.12,0.105152625,3622.75,0.052133982,,4.901121877,0.823801632,0.109790923,0.05443362,,0.810817432,0.059790923,,0.005357303,0.001859229,0.021224363,0.001621201,11.4156779
99,3868.69,4.723675214,646.38,0.789230769,86.56,0.105689866,3624.31,0.052156432,,4.932037226,0.824043855,0.110351861,0.05445706,,0.812575965,0.061230842,,0.006773782,0.001872482,0.021218567,0.001665264,11.33178459
100,3874.38,4.730622711,646.81,0.7897558,87.44,0.106764347,3626,0.052180752,,4.939291178,0.824592045,0.111473738,0.054482453,,0.814640465,0.060836795,,0.006354342,0.001874841,0.021217467,0.001662145,11.31694072
